{
  "name": "ex-hello",
  "description": "example",
  "handler": "index.handler",
  "role": "arn:aws:iam::436582069789:role/glowpick_lambda_function",
  "environment": {
    "NODE_ENV": "development"
  }
}